ex1/test/dump.vcd
$version Generated by VerilatedVcd $end
$timescale 1s $end

 $scope module TOP $end
  $var wire  2 5 f [1:0] $end
  $var wire  2 1 x0 [1:0] $end
  $var wire  2 2 x1 [1:0] $end
  $var wire  2 3 x2 [1:0] $end
  $var wire  2 4 x3 [1:0] $end
  $var wire  2 6 y [1:0] $end
  $scope module mux41 $end
   $var wire  2 5 f [1:0] $end
   $var wire  2 1 x0 [1:0] $end
   $var wire  2 2 x1 [1:0] $end
   $var wire  2 3 x2 [1:0] $end
   $var wire  2 4 x3 [1:0] $end
   $var wire  2 6 y [1:0] $end
   $scope module i0 $end
    $var wire 32 9 DATA_LEN [31:0] $end
    $var wire 32 9 KEY_LEN [31:0] $end
    $var wire 32 8 NR_KEY [31:0] $end
    $var wire  2 : default_out [1:0] $end
    $var wire  2 5 key [1:0] $end
    $var wire 16 7 lut [15:0] $end
    $var wire  2 6 out [1:0] $end
    $scope module i0 $end
     $var wire 32 9 DATA_LEN [31:0] $end
     $var wire 32 ; HAS_DEFAULT [31:0] $end
     $var wire 32 9 KEY_LEN [31:0] $end
     $var wire 32 8 NR_KEY [31:0] $end
     $var wire 32 8 PAIR_LEN [31:0] $end
     $var wire  2 + data_list[0] [1:0] $end
     $var wire  2 , data_list[1] [1:0] $end
     $var wire  2 - data_list[2] [1:0] $end
     $var wire  2 . data_list[3] [1:0] $end
     $var wire  2 : default_out [1:0] $end
     $var wire  1 0 hit $end
     $var wire 32 < i [31:0] $end
     $var wire  2 5 key [1:0] $end
     $var wire  2 # key_list[0] [1:0] $end
     $var wire  2 $ key_list[1] [1:0] $end
     $var wire  2 % key_list[2] [1:0] $end
     $var wire  2 & key_list[3] [1:0] $end
     $var wire 16 7 lut [15:0] $end
     $var wire  2 / lut_out [1:0] $end
     $var wire  2 6 out [1:0] $end
     $var wire  4 ' pair_list[0] [3:0] $end
     $var wire  4 ( pair_list[1] [3:0] $end
     $var wire  4 ) pair_list[2] [3:0] $end
     $var wire  4 * pair_list[3] [3:0] $end
    $upscope $end
   $upscope $end
  $upscope $end
 $upscope $end
$enddefinitions $end


#1
b11 #
b10 $
b01 %
b00 &
b1110 '
b1000 (
b0101 )
b0011 *
b10 +
b00 ,
b01 -
b11 .
b11 /
10
b11 1
b01 2
b00 3
b10 4
b00 5
b11 6
b0011010110001110 7
b00000000000000000000000000000100 8
b00000000000000000000000000000010 9
b00 :
b00000000000000000000000000000001 ;
b00000000000000000000000000000100 <
#2
b1100 '
b1001 (
b0010 *
b00 +
b01 ,
b10 .
b10 /
b10 1
b01 3
b00 4
b10 6
b0010010110011100 7
#3
b1110 '
b1000 (
b0011 *
b10 +
b00 ,
b11 .
b11 /
b11 1
b00 3
b10 4
b11 6
b0011010110001110 7
#4
b1100 '
b1001 (
b0010 *
b00 +
b01 ,
b10 .
b10 /
b10 1
b01 3
b00 4
b10 6
b0010010110011100 7
#5
b1110 '
b1000 (
b0011 *
b10 +
b00 ,
b11 .
b11 /
b11 1
b00 3
b10 4
b11 6
b0011010110001110 7
#6
b1100 '
b1001 (
b0010 *
b00 +
b01 ,
b10 .
b10 /
b10 1
b01 3
b00 4
b10 6
b0010010110011100 7
#7
b1110 '
b1000 (
b0011 *
b10 +
b00 ,
b11 .
b11 /
b11 1
b00 3
b10 4
b11 6
b0011010110001110 7
#8
b1100 '
b1001 (
b0010 *
b00 +
b01 ,
b10 .
b10 /
b10 1
b01 3
b00 4
b10 6
b0010010110011100 7
